{"count":"38","pages":4,"page":1,"list":[{"ovalue_id":"61","option_id":"10","order":"9","total_products":2,"total_stocks":2,"change_price_type":0,"change_price_value":0,"percent":"0","color":"#bca07b","translations":{"pl_PL":{"translation_id":"61","ovalue_id":"61","lang_id":"1","value":"kamel"}}},{"ovalue_id":"62","option_id":"10","order":"11","total_products":5,"total_stocks":5,"change_price_type":0,"change_price_value":0,"percent":"0","color":"#a98f7b","translations":{"pl_PL":{"translation_id":"62","ovalue_id":"62","lang_id":"1","value":"caffe latte"}}},{"ovalue_id":"63","option_id":"10","order":"17","total_products":1,"total_stocks":1,"change_price_type":0,"change_price_value":0,"percent":"0","color":"#6b4d40","translations":{"pl_PL":{"translation_id":"63","ovalue_id":"63","lang_id":"1","value":"espresso"}}},{"ovalue_id":"64","option_id":"10","order":"7","total_products":1,"total_stocks":1,"change_price_type":0,"change_price_value":0,"percent":"0","color":"#fcf9f2","translations":{"pl_PL":{"translation_id":"64","ovalue_id":"64","lang_id":"1","value":"off-white"}}},{"ovalue_id":"65","option_id":"10","order":"25","total_products":8,"total_stocks":8,"change_price_type":0,"change_price_value":0,"percent":"0","color":"#d7d6dd","translations":{"pl_PL":{"translation_id":"65","ovalue_id":"65","lang_id":"1","value":"szary"}}},{"ovalue_id":"66","option_id":"10","order":"45","total_products":13,"total_stocks":13,"change_price_type":0,"change_price_value":0,"percent":"0","color":"#221419","translations":{"pl_PL":{"translation_id":"66","ovalue_id":"66","lang_id":"1","value":"czarny"}}},{"ovalue_id":"67","option_id":"10","order":"19","total_products":2,"total_stocks":2,"change_price_type":0,"change_price_value":0,"percent":"0","color":"#3f101c","translations":{"pl_PL":{"translation_id":"67","ovalue_id":"67","lang_id":"1","value":"bordowy"}}},{"ovalue_id":"68","option_id":"10","order":"3","total_products":5,"total_stocks":5,"change_price_type":0,"change_price_value":0,"percent":"0","color":"#f2e1d9","translations":{"pl_PL":{"translation_id":"68","ovalue_id":"68","lang_id":"1","value":"biszkoptowy"}}},{"ovalue_id":"69","option_id":"10","order":"29","total_products":1,"total_stocks":1,"change_price_type":0,"change_price_value":0,"percent":"0","color":"#678c90","translations":{"pl_PL":{"translation_id":"69","ovalue_id":"69","lang_id":"1","value":"patyna"}}},{"ovalue_id":"70","option_id":"10","order":"43","total_products":1,"total_stocks":1,"change_price_type":0,"change_price_value":0,"percent":"0","color":"#01372c","translations":{"pl_PL":{"translation_id":"70","ovalue_id":"70","lang_id":"1","value":"ziele\u0144 butelkowa"}}}]}