{"count":"250","pages":25,"page":1,"list":[{"country_id":"1","isocode":"AD","regions":"0","codes":"1","active":"1"},{"country_id":"2","isocode":"AE","regions":"0","codes":"1","active":"1"},{"country_id":"3","isocode":"AF","regions":"0","codes":"1","active":"1"},{"country_id":"4","isocode":"AG","regions":"0","codes":"1","active":"1"},{"country_id":"5","isocode":"AI","regions":"0","codes":"1","active":"1"},{"country_id":"6","isocode":"AL","regions":"0","codes":"1","active":"1"},{"country_id":"7","isocode":"AM","regions":"0","codes":"1","active":"1"},{"country_id":"8","isocode":"AO","regions":"0","codes":"1","active":"1"},{"country_id":"9","isocode":"AQ","regions":"0","codes":"1","active":"1"},{"country_id":"10","isocode":"AR","regions":"0","codes":"1","active":"1"}]}