{"count":"56","pages":19,"page":1,"list":[{"product_id":"30","producer_id":"19","group_id":"8","tax_id":"1","add_date":"2023-10-05 08:01:48","edit_date":"2023-12-13 07:48:48","other_price":"0.00","pkwiu":"","unit_id":"1","in_loyalty":"0","loyalty_score":null,"loyalty_price":null,"bestseller":"0","newproduct":"0","dimension_w":"0.0000","dimension_h":"0.0000","dimension_l":"0.0000","vol_weight":"0.0000","currency_id":null,"gauge_id":null,"unit_price_calculation":"0","type":"0","category_id":22,"categories":[22,24],"is_product_of_day":false,"is_digital":0,"collections":[2],"promo_price":"182.00","code":"0187-62130","ean":"","stock":{"stock_id":"38","extended":"0","price":"235.00","price_type":"1","price_buying":"0.00","price_buying_net":"0.00","stock":"10","package":"0","warn_level":"1","sold":"0","weight":"1","weight_type":"1","active":"1","default":"0","product_id":"30","availability_id":null,"delivery_id":"5","gfx_id":null,"code":"0187-62130","ean":"","comp_weight":"1","comp_price":"235.00","comp_promo_price":"182.00","price_wholesale":"235.00","comp_price_wholesale":"235.00","comp_promo_price_wholesale":"182.00","price_special":"235.00","comp_price_special":"235.00","comp_promo_price_special":"182.00","price_type_wholesale":"1","price_type_special":"1","calculation_unit_id":null,"calculation_unit_ratio":"0","historical_lowest_price":"235.00","wholesale_historical_lowest_price":"235.00","special_historical_lowest_price":"235.00","calculated_availability_id":"2"},"translations":{"pl_PL":{"translation_id":"30","product_id":"30","name":"Sukienka o\u0142\u00f3wkowa SunnyDay","short_description":"<p>Wiskozowa\u00a0sukienka z p\u00f3\u0142golfem<\/p>","description":"<p>Sukienka w s\u0142onecznym \u017c\u00f3\u0142tym\u00a0kolorze to idealny wyb\u00f3r na wiele okazji. Wykonana z wysokiej jako\u015bci wiskozy, gwarantuje komfort noszenia.\u00a0<\/p>\n<p>Sukienka ma prosty kr\u00f3j typu Slim Fit, kt\u00f3ry podkre\u015bla sylwetk\u0119, a d\u0142ugo\u015b\u0107 mini zapewnia swobod\u0119 ruchu. Dzi\u0119ki odpowiedniej grubo\u015bci i zwiewno\u015bci materia\u0142u sukienka jest odpowiednia na r\u00f3\u017cne temperatury. D\u0142ugie r\u0119kawy sprawiaj\u0105, \u017ce jest idealna na ch\u0142odniejsze dni, a\u00a0p\u00f3\u0142golf dodaje elegancji i charakteru. Sukienka wyst\u0119puje w jednolitym, jasnym kolorze \u017c\u00f3\u0142tym, co nadaje jej \u015bwie\u017cy i modowy wygl\u0105d.<\/p>\n<p>Sk\u0142ad materia\u0142u to 100% wiskoza, co czyni j\u0105 przyjazn\u0105 dla sk\u00f3ry. Mo\u017cna j\u0105 pra\u0107 w pralce w 30\u00b0C i suszy\u0107 w suszarce. To sukienka, kt\u00f3ra z pewno\u015bci\u0105 przyci\u0105gnie uwag\u0119 i sprawi, \u017ce poczujesz si\u0119 wyj\u0105tkowo na ka\u017cdej imprezie czy spotkaniu.\u00a0<br \/><br \/><\/p>","active":"1","lang_id":"1","isdefault":"0","seo_title":"","seo_description":"","seo_keywords":"","order":"1","main_page":"0","main_page_order":"0","booster":"","seo_url":"","permalink":"https:\/\/sklep173975.shoparena.pl\/pl\/p\/Sukienka-olowkowa-SunnyDay\/30"}},"options":[110],"options_non_stock":[],"attributes":{"5":{"16":"TAK","15":"30\u00b0C","14":"TAK","10":"100% wiskoza"},"6":{"21":"Golf","18":"Kolor jednolity"},"7":{"27":"Mini","25":"D\u0142ugie r\u0119kawy","24":"Prosty","23":"Slim Fit"}},"related":[53,73,34,49],"main_image":{"gfx_id":"30","name":"03a.jpg","unic_name":"30","order":"1","hidden":"0","translations":{"pl_PL":{"translation_id":"30","gfx_id":"30","name":"03a.jpg","description":"","lang_id":"1"}},"extension":"jpg"},"feeds_excludes":[],"tags":[],"safety_information":{"gpsr_producer_id":null,"gpsr_importer_id":null,"gpsr_responsible_id":null,"gpsr_certificates":[]},"special_offer":{"promo_id":"8","discount_type":"1","discount":"53.00","discount_wholesale":"0","discount_special":"0","date_from":"2026-06-28 21:59:15","date_to":"2026-08-30 21:59:15","condition_type":"1","product_id":"30","stocks":[38]}},{"product_id":"32","producer_id":"17","group_id":"8","tax_id":"1","add_date":"2023-10-05 09:04:32","edit_date":"2023-11-02 13:16:53","other_price":"0.00","pkwiu":"","unit_id":"1","in_loyalty":"0","loyalty_score":null,"loyalty_price":null,"bestseller":"0","newproduct":"0","dimension_w":"0.0000","dimension_h":"0.0000","dimension_l":"0.0000","vol_weight":"0.0000","currency_id":null,"gauge_id":null,"unit_price_calculation":"0","type":"0","category_id":"24","categories":[24,22],"is_product_of_day":false,"is_digital":0,"collections":[2],"promo_price":null,"code":"CA71-9568B","ean":"","stock":{"stock_id":"40","extended":"0","price":"220.00","price_type":"1","price_buying":"0.00","price_buying_net":"0.00","stock":"10","package":"0","warn_level":"1","sold":"0","weight":"1","weight_type":"1","active":"1","default":"0","product_id":"32","availability_id":null,"delivery_id":"5","gfx_id":null,"code":"CA71-9568B","ean":"","comp_weight":"1","comp_price":"220.00","comp_promo_price":"220.00","price_wholesale":"220.00","comp_price_wholesale":"220.00","comp_promo_price_wholesale":"220.00","price_special":"220.00","comp_price_special":"220.00","comp_promo_price_special":"220.00","price_type_wholesale":"1","price_type_special":"1","calculation_unit_id":null,"calculation_unit_ratio":"0","historical_lowest_price":"220.00","wholesale_historical_lowest_price":"220.00","special_historical_lowest_price":"220.00","calculated_availability_id":"2"},"translations":{"pl_PL":{"translation_id":"32","product_id":"32","name":"Sukienka rozkloszowana Rome","short_description":"<p>Rozkloszowana sukienka bawe\u0142niana d\u0142ugo\u015bci midi<\/p>","description":"<p>Sukienka z bawe\u0142ny 100% to idealna propozycja na codzienne stylizacje. Dost\u0119pna w trzech pi\u0119knych kolorach: jasnym biszkoptowym, ciemnym zielonym sosonowym i klasycznym czarnym.\u00a0<\/p>\n<p>Sukienka ma rozkloszowany d\u00f3\u0142, co zapewnia wygod\u0119 i swobod\u0119 ruchu. To sukienka o regularnym fasonie, kt\u00f3ra podkre\u015bla tali\u0119. Ze wzgl\u0119du na sw\u00f3j fason\u00a0sprawdzi si\u0119 na r\u00f3\u017cne okazje. Jest to letnia sukienka, bez r\u0119kaw\u00f3w i\u00a0mo\u017cna j\u0105 nosi\u0107 w cieplejsze dni. Okr\u0105g\u0142y dekolt nadaje jej\u00a0dziewcz\u0119cego uroku. To sukienka o regularnym fasonie, kt\u00f3ra podkre\u015bla tali\u0119.\u00a0D\u0142ugo\u015b\u0107 midi pozwoli Ci czu\u0107 si\u0119 komfortowo.\u00a0<\/p>\n<p>Nasza sukienka bawe\u0142niana mo\u017ce by\u0107 prana w pralce w 30\u00b0C, a tak\u017ce suszona w suszarce i prasowana. Jest \u0142atwa w piel\u0119gnacji i utrzymaniu w doskona\u0142ym stanie.<\/p>","active":"1","lang_id":"1","isdefault":"0","seo_title":"","seo_description":"","seo_keywords":"","order":"1","main_page":"0","main_page_order":"0","booster":"","seo_url":"","permalink":"https:\/\/sklep173975.shoparena.pl\/pl\/p\/Sukienka-rozkloszowana-Rome\/32"}},"options":[81,82,83],"options_non_stock":[],"attributes":{"5":{"16":"TAK","15":"30\u00b0C","14":"TAK","10":"100% bawe\u0142na"},"6":{"21":"Okr\u0105g\u0142y","18":"Kolor jednolity"},"7":{"27":"Midi","26":"Standardowa","25":"Bez r\u0119kaw\u00f3w","23":"Regular Fit"}},"related":[75,80,77,79],"main_image":{"gfx_id":"35","name":"02a.jpg","unic_name":"35","order":"1","hidden":"0","translations":{"pl_PL":{"translation_id":"35","gfx_id":"35","name":"02a.jpg","description":"","lang_id":"1"}},"extension":"jpg"},"feeds_excludes":[],"tags":[],"safety_information":{"gpsr_producer_id":null,"gpsr_importer_id":null,"gpsr_responsible_id":null,"gpsr_certificates":[]}},{"product_id":"33","producer_id":"20","group_id":"8","tax_id":"1","add_date":"2023-10-05 09:07:57","edit_date":"2023-11-02 08:34:59","other_price":"0.00","pkwiu":"","unit_id":"1","in_loyalty":"0","loyalty_score":null,"loyalty_price":null,"bestseller":"0","newproduct":"0","dimension_w":"0.0000","dimension_h":"0.0000","dimension_l":"0.0000","vol_weight":"0.0000","currency_id":null,"gauge_id":null,"unit_price_calculation":"0","type":"0","category_id":"16","categories":[16],"is_product_of_day":false,"is_digital":0,"collections":[],"promo_price":null,"code":"C671-769B1","ean":"","stock":{"stock_id":"41","extended":"0","price":"273.00","price_type":"1","price_buying":"0.00","price_buying_net":"0.00","stock":"10","package":"0","warn_level":"1","sold":"0","weight":"1","weight_type":"1","active":"1","default":"0","product_id":"33","availability_id":null,"delivery_id":"5","gfx_id":null,"code":"C671-769B1","ean":"","comp_weight":"1","comp_price":"273.00","comp_promo_price":"273.00","price_wholesale":"273.00","comp_price_wholesale":"273.00","comp_promo_price_wholesale":"273.00","price_special":"273.00","comp_price_special":"273.00","comp_promo_price_special":"273.00","price_type_wholesale":"1","price_type_special":"1","calculation_unit_id":null,"calculation_unit_ratio":"0","historical_lowest_price":"273.00","wholesale_historical_lowest_price":"273.00","special_historical_lowest_price":"273.00","calculated_availability_id":"2"},"translations":{"pl_PL":{"translation_id":"33","product_id":"33","name":"Sukienka na jedno rami\u0119 Nicea","short_description":"","description":"<p>Nicea to idealna \"ma\u0142a czarna\". Ta sukienka zosta\u0142a stworzona, by\u015b czu\u0142a si\u0119 wyj\u0105tkowo na wieczornych imprezach czy romantycznych randkach.<\/p>\n<p>Sukienka wykonana jest z trwa\u0142ego materia\u0142u, kt\u00f3ry nie gniecie si\u0119, dzi\u0119ki czemu zawsze b\u0119dziesz prezentowa\u0107 si\u0119 doskonale.\u00a0Sukienka ma minimalistyczny fason, kt\u00f3ry podkre\u015bla figur\u0119. Chocia\u017c fason jest dopasowanie do sylwetki, sukienka jest niezwykle wygodna. D\u0142ugi r\u0119kaw na jednym ramieniu nadaje jej wyj\u0105tkowego uroku\u00a0i pozwoli Ci si\u0119 wyr\u00f3\u017cni\u0107.<\/p>\n<p>Podszewka sukienki to 100% bawe\u0142na, co dodaje jej komfortu noszenia.\u00a0<\/p>\n<p>To ubranie, kt\u00f3re podkre\u015bli Twoj\u0105 figur\u0119 i doda pewno\u015bci siebie. W sukience Roma zawsze b\u0119dziesz prezentowa\u0107 si\u0119 modnie i stylowo.<\/p>","active":"1","lang_id":"1","isdefault":"0","seo_title":"","seo_description":"","seo_keywords":"","order":"1","main_page":"0","main_page_order":"0","booster":"","seo_url":"","permalink":"https:\/\/sklep173975.shoparena.pl\/pl\/p\/Sukienka-na-jedno-ramie-Nicea\/33"}},"options":[109],"options_non_stock":[],"attributes":{"5":{"17":"TAK","16":"TAK","15":"40\u00b0C","14":"TAK","11":"100% bawe\u0142na","10":"95% poliester, 5% elastan"},"6":{"18":"Kolor jednolity"},"7":{"27":"Mini","26":"Standardowa","25":"D\u0142ugie r\u0119kawy","24":"Prosty","23":"Slim Fit"}},"related":[35,45,48,47],"main_image":{"gfx_id":"39","name":"04a.jpg","unic_name":"39","order":"1","hidden":"0","translations":{"pl_PL":{"translation_id":"39","gfx_id":"39","name":"04a.jpg","description":"","lang_id":"1"}},"extension":"jpg"},"feeds_excludes":[],"tags":[],"safety_information":{"gpsr_producer_id":null,"gpsr_importer_id":null,"gpsr_responsible_id":null,"gpsr_certificates":[]}}]}