{"count":"22","pages":3,"page":1,"list":[{"category_id":"16","order":"1","root":"0","in_loyalty":"0","sort_type":"0","image_background":"","image_thumbnail":"","translations":{"pl_PL":{"trans_id":"16","category_id":"16","name":"Sukienki","description":"","description_bottom":"","active":"1","pres_id":null,"isdefault":"0","lang_id":"1","seo_title":"","seo_description":"","seo_keywords":"","custom_heading":"","seo_url":"","permalink":"https:\/\/sklep173975.shoparena.pl\/pl\/c\/Sukienki\/16","items":1,"attribute_groups":[5,6,7]}}},{"category_id":"17","order":"4","root":"0","in_loyalty":"0","sort_type":"0","image_background":"","image_thumbnail":"","translations":{"pl_PL":{"trans_id":"17","category_id":"17","name":"Sp\u00f3dnice","description":"","description_bottom":"","active":"1","pres_id":null,"isdefault":"0","lang_id":"1","seo_title":"","seo_description":"","seo_keywords":"","custom_heading":"","seo_url":"","permalink":"https:\/\/sklep173975.shoparena.pl\/pl\/c\/Spodnice\/17","items":1,"attribute_groups":[5,6,7]}}},{"category_id":"18","order":"6","root":"0","in_loyalty":"0","sort_type":"0","image_background":"","image_thumbnail":"","translations":{"pl_PL":{"trans_id":"18","category_id":"18","name":"Kurtki i p\u0142aszcze","description":"","description_bottom":"","active":"1","pres_id":null,"isdefault":"0","lang_id":"1","seo_title":"","seo_description":"","seo_keywords":"","custom_heading":"","seo_url":"","permalink":"https:\/\/sklep173975.shoparena.pl\/pl\/c\/Kurtki-i-plaszcze\/18","items":4,"attribute_groups":[5,6,7]}}},{"category_id":"19","order":"7","root":"0","in_loyalty":"0","sort_type":"0","image_background":"","image_thumbnail":"","translations":{"pl_PL":{"trans_id":"19","category_id":"19","name":"Akcesoria","description":"","description_bottom":"","active":"1","pres_id":null,"isdefault":"0","lang_id":"1","seo_title":"","seo_description":"","seo_keywords":"","custom_heading":"","seo_url":"","permalink":"https:\/\/sklep173975.shoparena.pl\/pl\/c\/Akcesoria\/19","items":7,"attribute_groups":[5,6,7]}}},{"category_id":"20","order":"2","root":"1","in_loyalty":"0","sort_type":"0","image_background":"","image_thumbnail":"","translations":{"pl_PL":{"trans_id":"20","category_id":"20","name":"Dla niego","description":"","description_bottom":"","active":"1","pres_id":null,"isdefault":"0","lang_id":"1","seo_title":"","seo_description":"","seo_keywords":"","custom_heading":"","seo_url":"","permalink":"https:\/\/sklep173975.shoparena.pl\/pl\/c\/Dla-niego\/20","items":0,"attribute_groups":[5,6,7]}}},{"category_id":"21","order":"1","root":"1","in_loyalty":"0","sort_type":"0","image_background":"","image_thumbnail":"","translations":{"pl_PL":{"trans_id":"21","category_id":"21","name":"Dla niej","description":"","description_bottom":"","active":"1","pres_id":null,"isdefault":"0","lang_id":"1","seo_title":"","seo_description":"","seo_keywords":"","custom_heading":"","seo_url":"","permalink":"https:\/\/sklep173975.shoparena.pl\/pl\/c\/Dla-niej\/21","items":0,"attribute_groups":[5,6,7]}}},{"category_id":"22","order":"1","root":"0","in_loyalty":"0","sort_type":"0","image_background":"","image_thumbnail":"","translations":{"pl_PL":{"trans_id":"22","category_id":"22","name":"Sukienki codzienne","description":"","description_bottom":"","active":"1","pres_id":null,"isdefault":"0","lang_id":"1","seo_title":"","seo_description":"","seo_keywords":"","custom_heading":"","seo_url":"","permalink":"https:\/\/sklep173975.shoparena.pl\/pl\/c\/Sukienki-codzienne\/22","items":8,"attribute_groups":[5,6,7]}}},{"category_id":"23","order":"2","root":"0","in_loyalty":"0","sort_type":"0","image_background":"","image_thumbnail":"","translations":{"pl_PL":{"trans_id":"23","category_id":"23","name":"Sukienki koktajlowe","description":"","description_bottom":"","active":"1","pres_id":null,"isdefault":"0","lang_id":"1","seo_title":"","seo_description":"","seo_keywords":"","custom_heading":"","seo_url":"","permalink":"https:\/\/sklep173975.shoparena.pl\/pl\/c\/Sukienki-koktajlowe\/23","items":5,"attribute_groups":[5,6,7]}}},{"category_id":"24","order":"0","root":"0","in_loyalty":"0","sort_type":"0","image_background":"","image_thumbnail":"","translations":{"pl_PL":{"trans_id":"24","category_id":"24","name":"Sukienki letnie","description":"","description_bottom":"","active":"1","pres_id":null,"isdefault":"0","lang_id":"1","seo_title":"","seo_description":"","seo_keywords":"","custom_heading":"","seo_url":"","permalink":"https:\/\/sklep173975.shoparena.pl\/pl\/c\/Sukienki-letnie\/24","items":8,"attribute_groups":[5,6,7]}}},{"category_id":"25","order":"2","root":"0","in_loyalty":"0","sort_type":"0","image_background":"","image_thumbnail":"","translations":{"pl_PL":{"trans_id":"25","category_id":"25","name":"Spodnie","description":"","description_bottom":"","active":"1","pres_id":null,"isdefault":"0","lang_id":"1","seo_title":"","seo_description":"","seo_keywords":"","custom_heading":"","seo_url":"","permalink":"https:\/\/sklep173975.shoparena.pl\/pl\/c\/Spodnie\/25","items":0,"attribute_groups":[5,6,7]}}}]}