{"count":"11","pages":2,"page":1,"list":[{"status_id":"1","active":"1","default":"1","color":"","type":"1","email_change":"0","order":"1","translations":{"pl_PL":{"trans_id":"1","status_id":"1","name":"z\u0142o\u017cone","lang_id":"1","message":"z\u0142o\u017cone","message_html":"z\u0142o\u017cone"}}},{"status_id":"2","active":"1","default":"0","color":"","type":"2","email_change":"0","order":"2","translations":{"pl_PL":{"trans_id":"2","status_id":"2","name":"przyj\u0119te do realizacji","lang_id":"1","message":"przyj\u0119te do realizacji","message_html":"przyj\u0119te do realizacji"}}},{"status_id":"3","active":"1","default":"0","color":"","type":"2","email_change":"0","order":"3","translations":{"pl_PL":{"trans_id":"3","status_id":"3","name":"oczekiwanie na dostaw\u0119","lang_id":"1","message":"oczekiwanie na dostaw\u0119","message_html":"oczekiwanie na dostaw\u0119"}}},{"status_id":"4","active":"1","default":"0","color":"","type":"2","email_change":"0","order":"4","translations":{"pl_PL":{"trans_id":"4","status_id":"4","name":"w trakcie kompletowania","lang_id":"1","message":"w trakcie kompletowania","message_html":"w trakcie kompletowania"}}},{"status_id":"5","active":"1","default":"0","color":"","type":"2","email_change":"0","order":"5","translations":{"pl_PL":{"trans_id":"5","status_id":"5","name":"oczekiwanie na p\u0142atno\u015b\u0107","lang_id":"1","message":"oczekiwanie na p\u0142atno\u015b\u0107","message_html":"oczekiwanie na p\u0142atno\u015b\u0107"}}},{"status_id":"6","active":"1","default":"0","color":"","type":"2","email_change":"0","order":"6","translations":{"pl_PL":{"trans_id":"6","status_id":"6","name":"gotowe do wys\u0142ania","lang_id":"1","message":"gotowe do wys\u0142ania","message_html":"gotowe do wys\u0142ania"}}},{"status_id":"7","active":"1","default":"0","color":"","type":"3","email_change":"0","order":"7","translations":{"pl_PL":{"trans_id":"7","status_id":"7","name":"przesy\u0142ka wys\u0142ana","lang_id":"1","message":"przesy\u0142ka wys\u0142ana","message_html":"przesy\u0142ka wys\u0142ana"}}},{"status_id":"8","active":"1","default":"0","color":"","type":"4","email_change":"0","order":"8","translations":{"pl_PL":{"trans_id":"8","status_id":"8","name":"anulowane","lang_id":"1","message":"anulowane","message_html":"anulowane"}}},{"status_id":"9","active":"1","default":"0","color":"","type":"4","email_change":"0","order":"9","translations":{"pl_PL":{"trans_id":"9","status_id":"9","name":"odrzucone","lang_id":"1","message":"odrzucone","message_html":"odrzucone"}}},{"status_id":"11","active":"1","default":"0","color":"","type":"4","email_change":"0","order":"10","translations":{"pl_PL":{"trans_id":"10","status_id":"11","name":"zwr\u00f3cone","lang_id":"1","message":"zwr\u00f3cone","message_html":"zwr\u00f3cone"}}}]}