{"count":"18","pages":2,"page":1,"list":[{"attribute_id":"10","name":"Sk\u0142ad materia\u0142u","description":"","order":"7","type":"2","active":"1","default":"4","options":[{"option_id":"38","attribute_id":"10","value":"55% len, 45% wiskoza","order":"0"},{"option_id":"42","attribute_id":"10","value":"95% poliester, 5% elastan","order":"1"},{"option_id":"43","attribute_id":"10","value":"100% wiskoza","order":"2"},{"option_id":"44","attribute_id":"10","value":"95% bawe\u0142na, 5% kaszmir","order":"3"},{"option_id":"95","attribute_id":"10","value":"100% bawe\u0142na","order":"4"},{"option_id":"96","attribute_id":"10","value":"98% bawe\u0142na 2% elastan","order":"5"},{"option_id":"99","attribute_id":"10","value":"90% we\u0142na merino, 10% kaszmir","order":"6"},{"option_id":"101","attribute_id":"10","value":"80% bawe\u0142na, 20% we\u0142na","order":"7"},{"option_id":"109","attribute_id":"10","value":"70% we\u0142na 30% poliamid","order":"8"}],"attribute_group_id":"5"},{"attribute_id":"11","name":"Podszewka","description":"","order":"6","type":"2","active":"1","default":"0","options":[{"option_id":"45","attribute_id":"11","value":"100% poliamid","order":"0"},{"option_id":"47","attribute_id":"11","value":"100% bawe\u0142na","order":"1"}],"attribute_group_id":"5"},{"attribute_id":"12","name":"Wype\u0142nienie","description":"","order":"5","type":"2","active":"1","default":"0","options":[{"option_id":"48","attribute_id":"12","value":"70% pierze, 30% pi\u00f3ra","order":"0"},{"option_id":"49","attribute_id":"12","value":"80% pierze, 20% pi\u00f3ra","order":"1"}],"attribute_group_id":"5"},{"attribute_id":"13","name":"Rodzaj ocieplenia","description":"","order":"4","type":"2","active":"1","default":"0","options":[{"option_id":"50","attribute_id":"13","value":"Ocieplane","order":"0"},{"option_id":"51","attribute_id":"13","value":"Bez ocieplenia","order":"1"}],"attribute_group_id":"5"},{"attribute_id":"14","name":"Mo\u017cliwo\u015b\u0107 prasowania","description":"","order":"3","type":"2","active":"1","default":"0","options":[{"option_id":"52","attribute_id":"14","value":"TAK","order":"0"},{"option_id":"53","attribute_id":"14","value":"NIE","order":"1"}],"attribute_group_id":"5"},{"attribute_id":"15","name":"Mo\u017cliwo\u015b\u0107 prania w pralce","description":"","order":"2","type":"2","active":"1","default":"1","options":[{"option_id":"54","attribute_id":"15","value":"NIE","order":"0"},{"option_id":"55","attribute_id":"15","value":"30\u00b0C","order":"1"},{"option_id":"56","attribute_id":"15","value":"40\u00b0C","order":"2"},{"option_id":"57","attribute_id":"15","value":"60\u00b0C","order":"3"}],"attribute_group_id":"5"},{"attribute_id":"16","name":"Suszenie w suszarce","description":"","order":"1","type":"2","active":"1","default":"0","options":[{"option_id":"58","attribute_id":"16","value":"TAK","order":"0"},{"option_id":"59","attribute_id":"16","value":"NIE","order":"1"}],"attribute_group_id":"5"},{"attribute_id":"17","name":"Mo\u017cliwo\u015b\u0107 wybielania","description":"","order":"0","type":"2","active":"1","default":"0","options":[{"option_id":"60","attribute_id":"17","value":"TAK","order":"0"},{"option_id":"61","attribute_id":"17","value":"NIE","order":"1"}],"attribute_group_id":"5"},{"attribute_id":"18","name":"Wz\u00f3r","description":"","order":"4","type":"2","active":"1","default":"0","options":[{"option_id":"62","attribute_id":"18","value":"Kolor jednolity","order":"0"},{"option_id":"63","attribute_id":"18","value":"Melan\u017c","order":"1"},{"option_id":"64","attribute_id":"18","value":"Jode\u0142ka","order":"2"},{"option_id":"65","attribute_id":"18","value":"Nadruk","order":"3"},{"option_id":"66","attribute_id":"18","value":"Kropki","order":"4"},{"option_id":"67","attribute_id":"18","value":"Paski","order":"5"},{"option_id":"100","attribute_id":"18","value":"Kratka","order":"6"}],"attribute_group_id":"6"},{"attribute_id":"19","name":"Zapi\u0119cie","description":"","order":"3","type":"2","active":"1","default":"0","options":[{"option_id":"68","attribute_id":"19","value":"Guziki","order":"0"},{"option_id":"69","attribute_id":"19","value":"Zamek b\u0142yskawiczny","order":"1"},{"option_id":"110","attribute_id":"19","value":"Brak","order":"2"}],"attribute_group_id":"6"}]}