{"count":"23","pages":3,"page":1,"list":[{"gfx_id":"46","product_id":"36","name":"36b.jpg","unic_name":"46","order":"1","hidden":"0","main":1,"translations":{"pl_PL":{"translation_id":"46","gfx_id":"46","name":"36b.jpg","lang_id":"1"}},"extension":"jpg"},{"gfx_id":"179","product_id":"36","name":"id36_2.jpg","unic_name":"179","order":"2","hidden":"0","main":0,"translations":{"pl_PL":{"translation_id":"179","gfx_id":"179","name":"id36_2.jpg","lang_id":"1"}},"extension":"jpg"},{"gfx_id":"180","product_id":"36","name":"okulary.jpg","unic_name":"180","order":"3","hidden":"0","main":0,"translations":{"pl_PL":{"translation_id":"180","gfx_id":"180","name":"okulary.jpg","lang_id":"1"}},"extension":"jpg"},{"gfx_id":"181","product_id":"36","name":"okulary.jpg","unic_name":"181","order":"4","hidden":"0","main":0,"translations":{"pl_PL":{"translation_id":"181","gfx_id":"181","name":"okulary.jpg","lang_id":"1"}},"extension":"jpg"},{"gfx_id":"182","product_id":"36","name":"okulary2.jpg","unic_name":"182","order":"5","hidden":"0","main":0,"translations":{"pl_PL":{"translation_id":"182","gfx_id":"182","name":"okulary2.jpg","lang_id":"1"}},"extension":"jpg"},{"gfx_id":"183","product_id":"36","name":"okulary2.jpg","unic_name":"183","order":"6","hidden":"0","main":0,"translations":{"pl_PL":{"translation_id":"183","gfx_id":"183","name":"okulary2.jpg","lang_id":"1"}},"extension":"jpg"},{"gfx_id":"184","product_id":"36","name":"okulary.jpg","unic_name":"184","order":"7","hidden":"0","main":0,"translations":{"pl_PL":{"translation_id":"184","gfx_id":"184","name":"okulary.jpg","lang_id":"1"}},"extension":"jpg"},{"gfx_id":"185","product_id":"36","name":"okulary.jpg","unic_name":"185","order":"8","hidden":"0","main":0,"translations":{"pl_PL":{"translation_id":"185","gfx_id":"185","name":"okulary.jpg","lang_id":"1"}},"extension":"jpg"},{"gfx_id":"186","product_id":"36","name":"okulary2.jpg","unic_name":"186","order":"9","hidden":"0","main":0,"translations":{"pl_PL":{"translation_id":"186","gfx_id":"186","name":"okulary2.jpg","lang_id":"1"}},"extension":"jpg"},{"gfx_id":"187","product_id":"36","name":"mock_image.jpg","unic_name":"187","order":"10","hidden":"0","main":0,"translations":{"pl_PL":{"translation_id":"187","gfx_id":"187","name":"mock_image.jpg","lang_id":"1"}},"extension":"jpg"}]}