{"count":"20","pages":2,"page":1,"list":[{"gpsr_certificate_id":"1","name":"CE","translations":{"pl_PL":{"translation_id":"1","gpsr_certificate_id":"1","description":"Posiada oznaczenie CE (zgodno\u015b\u0107 z normami UE).","lang_id":"1"},"en_US":{"translation_id":"21","gpsr_certificate_id":"1","description":"CE marked (compliance with EU standards).","lang_id":"2"}}},{"gpsr_certificate_id":"2","name":"REACH","translations":{"pl_PL":{"translation_id":"2","gpsr_certificate_id":"2","description":"Nie zawiera szkodliwych substancji chemicznych zgodnie z dyrektyw\u0105 REACH.","lang_id":"1"},"en_US":{"translation_id":"22","gpsr_certificate_id":"2","description":"Does not contain harmful chemicals in accordance with the REACH regulation.","lang_id":"2"}}},{"gpsr_certificate_id":"3","name":"EN 71","translations":{"pl_PL":{"translation_id":"3","gpsr_certificate_id":"3","description":"Zgodny z norm\u0105 EN 71 (bezpiecze\u0144stwo zabawek).","lang_id":"1"},"en_US":{"translation_id":"23","gpsr_certificate_id":"3","description":"Compliant with EN 71 standard (toy safety).","lang_id":"2"}}},{"gpsr_certificate_id":"4","name":"RoHS","translations":{"pl_PL":{"translation_id":"4","gpsr_certificate_id":"4","description":"Spe\u0142nia wymagania dyrektywy RoHS (ograniczenie stosowania niebezpiecznych substancji).","lang_id":"1"},"en_US":{"translation_id":"24","gpsr_certificate_id":"4","description":"Meets the requirements of the RoHS directive (restriction of hazardous substances).","lang_id":"2"}}},{"gpsr_certificate_id":"5","name":"testy dermatologiczne","translations":{"pl_PL":{"translation_id":"5","gpsr_certificate_id":"5","description":"Testowany dermatologicznie pod k\u0105tem bezpiecze\u0144stwa dla sk\u00f3ry.","lang_id":"1"},"en_US":{"translation_id":"25","gpsr_certificate_id":"5","description":"Dermatologically tested for skin safety.","lang_id":"2"}}},{"gpsr_certificate_id":"6","name":"Oeko-Tex","translations":{"pl_PL":{"translation_id":"6","gpsr_certificate_id":"6","description":"Posiada certyfikat Oeko-Tex (tekstylia s\u0105 wolne od szkodliwych substancji chemicznych).","lang_id":"1"},"en_US":{"translation_id":"26","gpsr_certificate_id":"6","description":"Oeko-Tex certified (textiles are free from harmful chemicals).","lang_id":"2"}}},{"gpsr_certificate_id":"7","name":"Ecolabel","translations":{"pl_PL":{"translation_id":"7","gpsr_certificate_id":"7","description":"Posiada oznaczenie EU Ecolabel (produkt przyjazny \u015brodowisku).","lang_id":"1"},"en_US":{"translation_id":"27","gpsr_certificate_id":"7","description":"EU Ecolabel certified (environmentally friendly product).","lang_id":"2"}}},{"gpsr_certificate_id":"8","name":"Cruelty-Free","translations":{"pl_PL":{"translation_id":"8","gpsr_certificate_id":"8","description":"Nie by\u0142 testowany na zwierz\u0119tach na \u017cadnym etapie produkcji.","lang_id":"1"},"en_US":{"translation_id":"28","gpsr_certificate_id":"8","description":"Not tested on animals at any stage of production.","lang_id":"2"}}},{"gpsr_certificate_id":"9","name":"EN 62115","translations":{"pl_PL":{"translation_id":"9","gpsr_certificate_id":"9","description":"Spe\u0142nia norm\u0119 EN 62115 (bezpiecze\u0144stwo zabawek elektronicznych).","lang_id":"1"},"en_US":{"translation_id":"29","gpsr_certificate_id":"9","description":"Complies with EN 62115 standard (safety of electric toys).","lang_id":"2"}}},{"gpsr_certificate_id":"10","name":"3+","translations":{"pl_PL":{"translation_id":"10","gpsr_certificate_id":"10","description":"Dla dzieci powy\u017cej 3 roku \u017cycia.","lang_id":"1"},"en_US":{"translation_id":"30","gpsr_certificate_id":"10","description":"For children 3 and over.","lang_id":"2"}}}]}