{"count":"127","pages":26,"page":1,"list":[{"stock_id":"38","extended":"0","price":"235.00","price_type":"1","price_buying":"0.00","price_buying_net":"0.00","stock":"10","package":"0","warn_level":"1","sold":"0","weight":"1","weight_type":"1","active":"1","default":"0","product_id":"30","availability_id":null,"delivery_id":"5","gfx_id":null,"code":"0187-62130","ean":"","comp_weight":"1","comp_price":"235.00","comp_promo_price":"182.00","price_wholesale":"235.00","comp_price_wholesale":"235.00","comp_promo_price_wholesale":"182.00","price_special":"235.00","comp_price_special":"235.00","comp_promo_price_special":"182.00","price_type_wholesale":"1","price_type_special":"1","calculation_unit_id":null,"calculation_unit_ratio":"0","calculated_availability_id":"2","options":[],"historical_lowest_price":"235.00","wholesale_historical_lowest_price":"235.00","special_historical_lowest_price":"235.00","special_offer":{"promo_id":"8","discount_type":"1","discount":"53.00","discount_wholesale":"0","discount_special":"0","date_from":"2026-06-28 21:59:15","date_to":"2026-08-30 21:59:15","condition_type":"1","product_id":"30","stocks":[38]}},{"stock_id":"40","extended":"0","price":"220.00","price_type":"1","price_buying":"0.00","price_buying_net":"0.00","stock":"10","package":"0","warn_level":"1","sold":"0","weight":"1","weight_type":"1","active":"1","default":"0","product_id":"32","availability_id":null,"delivery_id":"5","gfx_id":null,"code":"CA71-9568B","ean":"","comp_weight":"1","comp_price":"220.00","comp_promo_price":"220.00","price_wholesale":"220.00","comp_price_wholesale":"220.00","comp_promo_price_wholesale":"220.00","price_special":"220.00","comp_price_special":"220.00","comp_promo_price_special":"220.00","price_type_wholesale":"1","price_type_special":"1","calculation_unit_id":null,"calculation_unit_ratio":"0","calculated_availability_id":"2","options":[],"historical_lowest_price":"220.00","wholesale_historical_lowest_price":"220.00","special_historical_lowest_price":"220.00"},{"stock_id":"41","extended":"0","price":"273.00","price_type":"1","price_buying":"0.00","price_buying_net":"0.00","stock":"10","package":"0","warn_level":"1","sold":"0","weight":"1","weight_type":"1","active":"1","default":"0","product_id":"33","availability_id":null,"delivery_id":"5","gfx_id":null,"code":"C671-769B1","ean":"","comp_weight":"1","comp_price":"273.00","comp_promo_price":"273.00","price_wholesale":"273.00","comp_price_wholesale":"273.00","comp_promo_price_wholesale":"273.00","price_special":"273.00","comp_price_special":"273.00","comp_promo_price_special":"273.00","price_type_wholesale":"1","price_type_special":"1","calculation_unit_id":null,"calculation_unit_ratio":"0","calculated_availability_id":"2","options":[],"historical_lowest_price":"273.00","wholesale_historical_lowest_price":"273.00","special_historical_lowest_price":"273.00"},{"stock_id":"42","extended":"0","price":"439.00","price_type":"1","price_buying":"0.00","price_buying_net":"0.00","stock":"10","package":"0","warn_level":"1","sold":"0","weight":"1","weight_type":"1","active":"1","default":"0","product_id":"34","availability_id":null,"delivery_id":"5","gfx_id":null,"code":"3A71-121D3","ean":"","comp_weight":"1","comp_price":"439.00","comp_promo_price":"439.00","price_wholesale":"439.00","comp_price_wholesale":"439.00","comp_promo_price_wholesale":"439.00","price_special":"439.00","comp_price_special":"439.00","comp_promo_price_special":"439.00","price_type_wholesale":"1","price_type_special":"1","calculation_unit_id":null,"calculation_unit_ratio":"0","calculated_availability_id":"2","options":[],"historical_lowest_price":"439.00","wholesale_historical_lowest_price":"439.00","special_historical_lowest_price":"439.00"},{"stock_id":"43","extended":"0","price":"215.00","price_type":"1","price_buying":"0.00","price_buying_net":"0.00","stock":"10","package":"0","warn_level":"1","sold":"0","weight":"1","weight_type":"1","active":"1","default":"0","product_id":"35","availability_id":null,"delivery_id":"5","gfx_id":null,"code":"23F7-430CE","ean":"","comp_weight":"1","comp_price":"215.00","comp_promo_price":"215.00","price_wholesale":"215.00","comp_price_wholesale":"215.00","comp_promo_price_wholesale":"215.00","price_special":"215.00","comp_price_special":"215.00","comp_promo_price_special":"215.00","price_type_wholesale":"1","price_type_special":"1","calculation_unit_id":null,"calculation_unit_ratio":"0","calculated_availability_id":"2","options":[],"historical_lowest_price":"215.00","wholesale_historical_lowest_price":"215.00","special_historical_lowest_price":"215.00"}]}