{"count":"19","pages":2,"page":1,"list":[{"payment_id":"1","name":"cash","order":"1","install":"0","visible":"1","translations":{"pl_PL":{"translation_id":"1","payment_id":"1","title":"Got\u00f3wka","description":"","vendor_description":"","active":"1","notify":"<strong>Dzi\u0119kujemy za z\u0142o\u017cenie zam&oacute;wienia!<\/strong><br \/><br \/>Status zam\u00f3wienia: <strong>{status}<\/strong><br \/>Numer zam\u00f3wienia: <strong>{order_id}<\/strong><br \/><br \/>Zam&oacute;wienie nale\u017cy op\u0142aci\u0107 na etapie odbioru w naszej siedzibie.<br \/><br \/>Adres siedziby:<br \/><strong>{shop_company_name}<\/strong><br \/>{shop_address_1}<br \/>{shop_address_2}<br \/>{shop_zip_code}&nbsp; {shop_city}<br \/><br \/>{if confirmation}<strong>Zam&oacute;wienie nie jest jeszcze potwierdzone.<\/strong><br \/>Sprawd\u017a swoj\u0105 skrzynk\u0119 pocztow\u0105 i kliknij link potwierdzaj\u0105cy w wiadomo\u015bci, kt\u00f3r\u0105 wys\u0142ali\u015bmy. Je\u015bli nie widzisz wiadomo\u015bci w folderze \"Odebrane\", prosimy sprawdzi\u0107 folder \"SPAM\". Zazwyczaj wiadomo\u015b\u0107 dociera w ci\u0105gu kilku minut. {\/if}<br \/><br \/>Zmiany statusu zam\u00f3wienia b\u0119d\u0105 przesy\u0142ane na Tw\u00f3j adres e-mail.<br \/> Je\u015bli masz pytania, zadzwo\u0144 do nas na numer <strong>{shop_phone}<\/strong> lub napisz na adres: <strong>{shop_email}<\/strong>.<br \/> Pozdrawiamy,<br \/> Zesp\u00f3\u0142 Obs\u0142ugi Sklepu {shop_name}.<br \/><br \/>","notify_mail":"","lang_id":"1"}},"currencies":["1"]},{"payment_id":"2","name":"cod","order":"2","install":"0","visible":"1","translations":{"pl_PL":{"translation_id":"2","payment_id":"2","title":"Pobranie","description":"","vendor_description":"","active":"1","notify":"<strong>Dzi\u0119kujemy za z\u0142o\u017cenie zam&oacute;wienia!<\/strong><br \/><br \/>Status zam\u00f3wienia: <strong>{status}<\/strong><br \/>Numer zam\u00f3wienia: <strong>{order_id}<\/strong><br \/><br \/>Zam&oacute;wienie nale\u017cy op\u0142aci\u0107 na etapie odbioru przesy\u0142ki. Pami\u0119taj o przygotowaniu \u015brodk\u00f3w przed odbiorem.<br \/><br \/>{if confirmation}<strong>Zam&oacute;wienie nie jest jeszcze potwierdzone.<\/strong><br \/>Sprawd\u017a swoj\u0105 skrzynk\u0119 pocztow\u0105 i kliknij link potwierdzaj\u0105cy w wiadomo\u015bci, kt\u00f3r\u0105 wys\u0142ali\u015bmy. Je\u015bli nie widzisz wiadomo\u015bci w folderze \"Odebrane\", prosimy sprawdzi\u0107 folder \"SPAM\". Zazwyczaj wiadomo\u015b\u0107 dociera w ci\u0105gu kilku minut.{\/if}<br \/><br \/>Zmiany statusu zam\u00f3wienia b\u0119d\u0105 przesy\u0142ane na Tw\u00f3j adres e-mail.<br \/> Je\u015bli masz pytania, zadzwo\u0144 do nas na numer <strong>{shop_phone}<\/strong> lub napisz na adres: <strong>{shop_email}<\/strong>.<br \/> Pozdrawiamy,<br \/> Zesp\u00f3\u0142 Obs\u0142ugi Sklepu {shop_name}.<br \/><br \/>","notify_mail":"","lang_id":"1"}},"currencies":["1"]},{"payment_id":"3","name":"onlinePayment","order":"3","install":"1","visible":"1","translations":{"pl_PL":{"translation_id":"3","payment_id":"3","title":"Autopay","description":"Obs\u0142ugiwane przez Autopay S.A.","vendor_description":"","active":"0","notify":"<strong>Dzi\u0119kujemy za z\u0142o\u017cenie zam&oacute;wienia<\/strong><br \/><br \/>{if confirmation}Za chwil\u0119 otrzymasz e-mail z pro\u015bb\u0105 o jego potwierdzenie.{\/if}<br \/><br \/>Numer Twojego zam&oacute;wienia: <strong>{order_id}<\/strong> <br \/>Ca\u0142kowita warto\u015b\u0107 zakup&oacute;w, wraz z kosztami wysy\u0142ki: <strong>{sum}<\/strong><br \/><br \/><strong>Aby op\u0142aci\u0107 zam\u00f3wienie, kliknij i przejd\u017a do bramki p\u0142atniczej Autopay:<\/strong><br \/>{payment_form}<br \/><br \/>O zmianie statusu b\u0119dziemy Ci\u0119 r&oacute;wnie\u017c informowa\u0107 poczt\u0105 elektroniczn\u0105.<br \/><br \/>W razie jakichkolwiek pyta\u0144 lub w\u0105tpliwo\u015bci prosimy o kontakt <br \/>telefoniczny: {shop_phone} lub e-mailowy {shop_email}<br \/><br \/>Pozdrawiamy,<br \/>Zesp&oacute;\u0142 Obs\u0142ugi Sklepu {shop_name}<br \/><br \/>","notify_mail":"","lang_id":"1"}},"currencies":["1"]},{"payment_id":"4","name":"mraty","order":"4","install":"1","visible":"1","translations":{"pl_PL":{"translation_id":"4","payment_id":"4","title":"mBank mRaty","description":"","vendor_description":"","active":"0","notify":"<strong>Dzi\u0119kujemy za z\u0142o\u017cenie zam&oacute;wienia<\/strong><br \/><br \/>{if confirmation}Za chwil\u0119 otrzymasz e-mail z pro\u015bb\u0105 o jego potwierdzenie.{\/if}<br \/><br \/>Numer Twojego zam&oacute;wienia: <strong>{order_id}<\/strong> <br \/>Ca\u0142kowita warto\u015b\u0107 zakup&oacute;w, wraz z kosztami wysy\u0142ki: <strong>{sum}<\/strong><br \/><br \/><strong>Aby op\u0142aci\u0107 zam\u00f3wienie, kliknij i przejd\u017a do bramki p\u0142atniczej mBank:<\/strong><br \/>{payment_form}<br \/><br \/>O zmianie statusu b\u0119dziemy Ci\u0119 r&oacute;wnie\u017c informowa\u0107 poczt\u0105 elektroniczn\u0105.<br \/><br \/>W razie jakichkolwiek pyta\u0144 lub w\u0105tpliwo\u015bci prosimy o kontakt <br \/>telefoniczny: {shop_phone} lub e-mailowy {shop_email}<br \/><br \/>Pozdrawiamy,<br \/>Zesp&oacute;\u0142 Obs\u0142ugi Sklepu {shop_name}<br \/><br \/>","notify_mail":"","lang_id":"1"}},"currencies":["1"]},{"payment_id":"5","name":"platnosci.pl","order":"5","install":"1","visible":"1","translations":{"pl_PL":{"translation_id":"5","payment_id":"5","title":"PayU","description":"","vendor_description":"","active":"0","notify":"<p><strong>Dzi\u0119kujemy za z\u0142o\u017cenie zam\u00f3wienia<\/strong><br \/><br \/>{if confirmation}Za chwil\u0119 otrzymasz e-mail z pro\u015bb\u0105 o jego potwierdzenie.{\/if}<br \/><br \/>Numer Twojego zam\u00f3wienia: <strong>{order_id}<\/strong> <br \/>Ca\u0142kowita warto\u015b\u0107 zakup\u00f3w,  wraz z kosztami wysy\u0142ki: <strong>{sum}<\/strong><br \/><br \/><strong>Aby op\u0142aci\u0107 zam\u00f3wienie, kliknij i przejd\u017a do bramki p\u0142atniczej PayU:<\/strong><br \/>{payment_form}<br \/><br \/>O zmianie statusu b\u0119dziemy Ci\u0119 r\u00f3wnie\u017c informowa\u0107 poczt\u0105 elektroniczn\u0105.<br \/><br \/>W razie jakichkolwiek pyta\u0144 lub w\u0105tpliwo\u015bci prosimy o kontakt <br \/>telefoniczny: {shop_phone} lub e-mailowy {shop_email}<br \/><br \/>Pozdrawiamy, <br \/>Zesp\u00f3\u0142 Obs\u0142ugi Sklepu {shop_name}<br \/><br \/><\/p>","notify_mail":"","lang_id":"1"}},"currencies":["1"]},{"payment_id":"6","name":"dotpay.shoper","order":"6","install":"1","visible":"1","translations":{"pl_PL":{"translation_id":"6","payment_id":"6","title":"DotPay","description":"","vendor_description":"","active":"0","notify":"<strong>Dzi\u0119kujemy za z\u0142o\u017cenie zam&oacute;wienia<\/strong><br \/><br \/>{if confirmation}Za chwil\u0119 otrzymasz e-mail z pro\u015bb\u0105 o jego potwierdzenie.{\/if}<br \/><br \/>Numer Twojego zam&oacute;wienia: <strong>{order_id}<\/strong> <br \/>Ca\u0142kowita warto\u015b\u0107 zakup&oacute;w,  wraz z kosztami wysy\u0142ki: <strong>{sum}<\/strong><br \/><br \/><strong>Aby op\u0142aci\u0107 zam\u00f3wienie, kliknij i przejd\u017a do bramki p\u0142atniczej Przelewy24:<\/strong><br \/>{payment_form}<br \/><br \/>O zmianie statusu b\u0119dziemy Ci\u0119 r&oacute;wnie\u017c informowa\u0107 poczt\u0105 elektroniczn\u0105.<br \/><br \/>W razie jakichkolwiek pyta\u0144 lub w\u0105tpliwo\u015bci prosimy o kontakt <br \/>telefoniczny: {shop_phone} lub e-mailowy {shop_email}<br \/><br \/>Pozdrawiamy, <br \/>Zesp&oacute;\u0142 Obs\u0142ugi Sklepu {shop_name}<br \/><br \/>","notify_mail":"","lang_id":"1"}},"currencies":["1"]},{"payment_id":"7","name":"przelewy24.pl","order":"7","install":"1","visible":"0","translations":{"pl_PL":{"translation_id":"7","payment_id":"7","title":"Przelewy24.pl","description":"","vendor_description":"(ograniczona)","active":"0","notify":"<strong>Dzi\u0119kujemy za z\u0142o\u017cenie zam&oacute;wienia<\/strong><br \/><br \/>{if confirmation}Za chwil\u0119 otrzymasz e-mail z pro\u015bb\u0105 o jego potwierdzenie.{\/if}<br \/><br \/>Numer Twojego zam&oacute;wienia: <strong>{order_id}<\/strong> <br \/>Ca\u0142kowita warto\u015b\u0107 zakup&oacute;w,  wraz z kosztami wysy\u0142ki: <strong>{sum}<\/strong><br \/><br \/><strong>Aby op\u0142aci\u0107 zam\u00f3wienie, kliknij i przejd\u017a do bramki p\u0142atniczej Przelewy24:<\/strong><br \/>{payment_form}<br \/><br \/>O zmianie statusu b\u0119dziemy Ci\u0119 r&oacute;wnie\u017c informowa\u0107 poczt\u0105 elektroniczn\u0105.<br \/><br \/>W razie jakichkolwiek pyta\u0144 lub w\u0105tpliwo\u015bci prosimy o kontakt <br \/>telefoniczny: {shop_phone} lub e-mailowy {shop_email}<br \/><br \/>Pozdrawiamy, <br \/>Zesp&oacute;\u0142 Obs\u0142ugi Sklepu {shop_name}<br \/><br \/>","notify_mail":"","lang_id":"1"}},"currencies":["1"]},{"payment_id":"10","name":"zagiel","order":"10","install":"1","visible":"1","translations":{"pl_PL":{"translation_id":"10","payment_id":"10","title":"eRaty Santander Consumer Bank S.A.","description":"","vendor_description":"","active":"0","notify":"<strong>Dzi\u0119kujemy za z\u0142o\u017cenie zam&oacute;wienia<\/strong><br \/><br \/>{if confirmation}Za chwil\u0119 otrzymasz e-mail z pro\u015bb\u0105 o jego potwierdzenie.{\/if}<br \/><br \/>Numer Twojego zam&oacute;wienia: <strong>{order_id}<\/strong> <br \/>Ca\u0142kowita warto\u015b\u0107 zakup&oacute;w,  wraz z kosztami wysy\u0142ki: <strong>{sum}<\/strong><br \/><br \/><strong>Aby op\u0142aci\u0107 zam\u00f3wienie, kliknij i przejd\u017a do bramki p\u0142atniczej Santander Consumer Bank S.A.:<\/strong><br \/>{payment_form}<br \/><br \/>O zmianie statusu b\u0119dziemy Ci\u0119 r&oacute;wnie\u017c informowa\u0107 poczt\u0105 elektroniczn\u0105.<br \/><br \/>W razie jakichkolwiek pyta\u0144 lub w\u0105tpliwo\u015bci prosimy o kontakt <br \/>telefoniczny: {shop_phone} lub e-mailowy {shop_email}<br \/><br \/>Pozdrawiamy, <br \/>Zesp&oacute;\u0142 Obs\u0142ugi Sklepu {shop_name}<br \/><br \/>","notify_mail":"","lang_id":"1"}},"currencies":["1"]},{"payment_id":"11","name":"paypal","order":"11","install":"1","visible":"1","translations":{"pl_PL":{"translation_id":"11","payment_id":"11","title":"PayPal","description":"","vendor_description":"","active":"0","notify":"<p><strong>Dzi\u0119kujemy za z\u0142o\u017cenie zam\u00f3wienia<\/strong><br \/><br \/>{if confirmation}Za chwil\u0119 otrzymasz e-mail z pro\u015bb\u0105 o jego potwierdzenie.{\/if}<br \/><br \/>Numer Twojego zam\u00f3wienia: <strong>{order_id}<\/strong> <br \/>Ca\u0142kowita warto\u015b\u0107 zakup\u00f3w,  wraz z kosztami wysy\u0142ki: <strong>{sum}<\/strong><br \/><br \/><strong>Aby op\u0142aci\u0107 zam\u00f3wienie, kliknij i przejd\u017a do bramki p\u0142atniczej PayPal:<\/strong><br \/>{payment_form}<br \/><br \/>O zmianie statusu b\u0119dziemy Ci\u0119 r\u00f3wnie\u017c informowa\u0107 poczt\u0105 elektroniczn\u0105.<br \/><br \/>W razie jakichkolwiek pyta\u0144 lub w\u0105tpliwo\u015bci prosimy o kontakt <br \/>telefoniczny: {shop_phone} lub e-mailowy {shop_email}<br \/><br \/>Pozdrawiamy, <br \/>Zesp\u00f3\u0142 Obs\u0142ugi Sklepu {shop_name}<br \/><br \/><\/p>","notify_mail":"","lang_id":"1"}},"currencies":["1"]},{"payment_id":"12","name":"Allegro","order":"12","install":"1","visible":"0","translations":{"pl_PL":{"translation_id":"12","payment_id":"12","title":"Allegro","description":"","vendor_description":"","active":"0","notify":"","notify_mail":"","lang_id":"1"}},"currencies":["1"]}]}