{"count":"14","pages":2,"page":1,"list":[{"product_id":34,"position":4},{"product_id":40,"position":12},{"product_id":41,"position":1},{"product_id":42,"position":14},{"product_id":44,"position":3},{"product_id":48,"position":9},{"product_id":50,"position":2},{"product_id":52,"position":10},{"product_id":53,"position":7},{"product_id":69,"position":6}]}