{"count":"3","pages":2,"page":1,"list":[{"order_id":"100","user_id":"5","date":"2023-10-10 12:30:00","status_date":"2023-10-10 13:00:00","confirm_date":"2023-10-10 12:45:00","status_id":"2","payment_id":"1","shipping_id":"1","sum":"580.00","currency_id":null,"paid":"1","email":"jan.kowalski@example.pl","delivery_code":"","delivery_address":{"address_id":"100","order_id":"100","type":"1","firstname":"Jan","lastname":"Kowalski","company":"","pesel":"","city":"Warszawa","postcode":"00-001","street1":"ul. Kwiatowa 1","street2":"","state":"","country":"Polska","phone":"123456789","country_code":"PL","tax_identification_number":""},"billing_address":{"address_id":"100","order_id":"100","type":"2","firstname":"Jan","lastname":"Kowalski","company":"","pesel":"","city":"Warszawa","postcode":"00-001","street1":"ul. Kwiatowa 1","street2":"","state":"","country":"Polska","phone":"123456789","country_code":"PL","tax_identification_number":""}},{"order_id":"101","user_id":"6","date":"2023-10-11 09:15:00","status_date":"2023-10-11 10:00:00","confirm_date":"2023-10-11 09:30:00","status_id":"1","payment_id":"2","shipping_id":"1","sum":"215.00","currency_id":null,"paid":"0","email":"anna.nowak@example.pl","delivery_code":"","delivery_address":{"address_id":"101","order_id":"101","type":"1","firstname":"Anna","lastname":"Nowak","company":"","pesel":"","city":"Kraków","postcode":"30-002","street1":"ul. Różana 5","street2":"","state":"","country":"Polska","phone":"987654321","country_code":"PL","tax_identification_number":""},"billing_address":{"address_id":"101","order_id":"101","type":"2","firstname":"Anna","lastname":"Nowak","company":"","pesel":"","city":"Kraków","postcode":"30-002","street1":"ul. Różana 5","street2":"","state":"","country":"Polska","phone":"987654321","country_code":"PL","tax_identification_number":""}}]}
