{"count":"4","pages":2,"page":1,"list":[{"id":"8","order_id":"1","product_id":"13","stock_id":"13","price":"149.95","discount_perc":"0.0000","quantity":"1","delivery_time":"1","name":"Sp\u00f3dnica 4F wieczorowa","code":"101","pkwiu":"","tax":"23%","tax_value":"23","unit":"szt.","option":"Kolor ubra\u0144: Czerwony; Rozmiar: S","unit_fp":"0","weight":"0.5","type":"0","loyalty":null,"delivery_time_hours":"24","is_digital":0,"text_options":[],"file_options":[],"warehouse_code":"","ean":"","images":null},{"id":"9","order_id":"2","product_id":"7","stock_id":"7","price":"66.00","discount_perc":"0.0000","quantity":"1","delivery_time":"1","name":"Balerinki z tworzywa sztucznego","code":"1162","pkwiu":"","tax":"23%","tax_value":"23","unit":"szt.","option":"Kolor but\u00f3w: Pomara\u0144czowy; Rozmiar: 39","unit_fp":"0","weight":"1","type":"0","loyalty":null,"delivery_time_hours":"24","is_digital":0,"text_options":[],"file_options":[],"warehouse_code":"","ean":"","images":null},{"id":"10","order_id":"2","product_id":"13","stock_id":"13","price":"149.95","discount_perc":"0.0000","quantity":"1","delivery_time":"1","name":"Sp\u00f3dnica 4F wieczorowa","code":"101","pkwiu":"","tax":"23%","tax_value":"23","unit":"szt.","option":"Kolor ubra\u0144: Zielony; Rozmiar: S","unit_fp":"0","weight":"0.5","type":"0","loyalty":null,"delivery_time_hours":"24","is_digital":0,"text_options":[],"file_options":[],"warehouse_code":"","ean":"","images":null}]}