{"count":"15","pages":2,"page":2,"list":[{"order_id":"108","user_id":"12","date":"2023-10-18 08:00:00","status_date":"2023-10-18 09:00:00","confirm_date":"2023-10-18 08:15:00","status_id":"3","payment_id":"1","shipping_id":"1","sum":"430.00","currency_id":null,"paid":"1","email":"customer8@example.pl","delivery_code":"PL1234567890","delivery_address":{"address_id":"108","order_id":"108","type":"1","firstname":"Maria","lastname":"Wiśniewska","company":"","pesel":"","city":"Gdańsk","postcode":"80-008","street1":"ul. Morska 8","street2":"","state":"","country":"Polska","phone":"111222333","country_code":"PL","tax_identification_number":""},"billing_address":{"address_id":"108","order_id":"108","type":"2","firstname":"Maria","lastname":"Wiśniewska","company":"","pesel":"","city":"Gdańsk","postcode":"80-008","street1":"ul. Morska 8","street2":"","state":"","country":"Polska","phone":"111222333","country_code":"PL","tax_identification_number":""}},{"order_id":"109","user_id":"13","date":"2023-10-19 10:30:00","status_date":null,"confirm_date":null,"status_id":"1","payment_id":"2","shipping_id":"2","sum":"215.00","currency_id":null,"paid":"0","email":"customer9@example.pl","delivery_code":null,"delivery_address":{"address_id":"109","order_id":"109","type":"1","firstname":"Tomasz","lastname":"Kowalczyk","company":"Firma XYZ","pesel":"","city":"Łódź","postcode":"90-009","street1":"ul. Handlowa 3","street2":"","state":"","country":"Polska","phone":"444555666","country_code":"PL","tax_identification_number":""},"billing_address":{"address_id":"109","order_id":"109","type":"2","firstname":"Tomasz","lastname":"Kowalczyk","company":"Firma XYZ","pesel":"","city":"Łódź","postcode":"90-009","street1":"ul. Handlowa 3","street2":"","state":"","country":"Polska","phone":"444555666","country_code":"PL","tax_identification_number":"1234567890"}}]}
